{
    "/js/app.js": "/js/app.js",
    "/css/TasksBs4/app.css": "/css/TasksBs4/app.css",
    "/css/TasksBs4/style_lg.css": "/css/TasksBs4/style_lg.css",
    "/css/TasksBs4/style_md.css": "/css/TasksBs4/style_md.css",
    "/css/TasksBs4/style_sm.css": "/css/TasksBs4/style_sm.css",
    "/css/TasksBs4/style_xs_320.css": "/css/TasksBs4/style_xs_320.css",
    "/css/TasksBs4/style_xs_480.css": "/css/TasksBs4/style_xs_480.css",
    "/css/TasksBs4/style_xs_600.css": "/css/TasksBs4/style_xs_600.css"
}